Session 2 Kin-finding lab | Close-kin mark-recapture: theory and practice — Spokane, Washington, USA
…
long_genos <- beardo_genos %>%
  rename(Indiv = Our_sample) %>%
  pivot_longer(
    cols = -Indiv, 
    names_to = c("Locus", "gene_copy"), 
    names_sep = "\\.", 
    values_to = "Allele"
  )

This looks like:

long_genos

## # A tibble: 7,624,792 × 4
##    Indiv    Locus gene_copy Allele
##    <chr>    <chr> <chr>     <chr> 
##  1 2010BS40 L252  1         B     
##  2 2010BS40 L252  2         B     
##  3 2010BS40 L253  1         A     
##  4 2010BS40 L253  2         O     
##  5 2010BS40 L472  1         A     
##  6 2010BS40 L472  2         B     
##  7 2010BS40 L567  1         A     
##  8 2010BS40 L567  2         A     
##  9 2010BS40 L1007 1         A     
## 10 2010BS40 L1007 2         B     
## # … with 7,624,782 more rows
## # ℹ Use `print(n = ...)` to see more rows
…
The allele frequencies look like this:

afreqs_ready

## # A tibble: 7,423 × 7
##    Chrom   Pos Locus Allele LocIdx AlleIdx    Freq
##    <chr> <int> <chr> <chr>   <int>   <int>   <dbl>
##  1 Unk       1 L252  A           1       1 0.724  
##  2 Unk       1 L252  B           1       2 0.268  
##  3 Unk       1 L252  O           1       3 0.00876
##  4 Unk       2 L253  A           2       1 0.739  
##  5 Unk       2 L253  B           2       2 0.196  
##  6 Unk       2 L253  O           2       3 0.0654 
##  7 Unk       3 L472  A           3       1 0.570  
##  8 Unk       3 L472  B           3       2 0.422  
##  9 Unk       3 L472  O           3       3 0.00741
## 10 Unk       4 L567  A           4       1 0.860  
## # … with 7,413 more rows
## # ℹ Use `print(n = ...)` to see more rows
…
