Session 3 Simulation and Inference Play with Hillary et al.’s White Shark CKMR example | Close-kin mark-recapture: theory and practice — Spokane, Washington, USA
…
N: the population sizes over time,

samples: the ages and sampling years of the samples (also it has the number of adults
present at the birth year of each sample)

pairs: a tibble with one row for each pair, with the HSP probs calculated, and the
simulated Bernoulli random variable in isHSP saying whether it is a kin pair or not.

The remaining two elements of the
list, sim_vals, are the pair_counts which show the number of half-sibling pairs of different types, and also shows the half-sibling pair probability that was used to simulate them:

sim_vals$pair_counts

## # A tibble: 325 × 5
##    born_year age_diff HSP_prob  n_UP n_HSP
##        <int>    <int>    <dbl> <int> <int>
##  1        13        1  0.00413    10     0
##  2        14        1  0.00409    35     0
##  3        14        2  0.00384    14     0
##  4        15        1  0.00405    84     0
##  5        15        2  0.00380    60     0
##  6        15        3  0.00357    24     0
##  7        16        1  0.00401   216     0
##  8        16        2  0.00376   124     2
##  9        16        3  0.00354    90     0
## 10        16        4  0.00333    36     0
## # … with 315 more rows
## # ℹ Use `print(n = ...)` to see more rows

In this tibble, n_HSP is the number of half-sibling pairs found in which the second-born was
born in born_year (i.e. born_year = \(c_2\) ) and the older member was born age_diff years before (i.e. \(c_1\) is \(c_2\) - age_diff. As you can see, there
are a lot of categories for which no HSPs are found. That is to be expected—they are pretty rare, and, of course, you expect to see fewer of them if the population is large…that is how CKMR works… The HSP_prob column gives the probability of seeing an HSP of a certain category given
the values of the parameters that were used to simulate the data.

Typically if you had some observed data, you wouldn’t compute the HSP_prob for parameter
values you didn’t know. So, if you had observed data it would look like:

sim_vals$pair_data

## # A tibble: 325 × 4
##    born_year age_diff  n_UP n_HSP
##        <int>    <int> <int> <int>
##  1        13        1    10     0
##  2        14        1    35     0
##  3        14        2    14     0
##  4        15        1    84     0
##  5        15        2    60     0
##  6        15        3    24     0
##  7        16        1   216     0
##  8        16        2   124     2
##  9        16        3    90     0
## 10        16        4    36     0
## # … with 315 more rows
## # ℹ Use `print(n = ...)` to see more rows
…
The output looks like this:

LL_tib

## # A tibble: 13,104 × 5
##    N_init lambda  phiA parameters         nll
##     <dbl>  <dbl> <dbl> <list>           <dbl>
##  1    200  -0.04  0.85 <named list [3]> 2818.
##  2    200  -0.04  0.86 <named list [3]> 2921.
##  3    200  -0.04  0.87 <named list [3]> 3034.
##  4    200  -0.04  0.88 <named list [3]> 3158.
##  5    200  -0.04  0.89 <named list [3]> 3295.
##  6    200  -0.04  0.9  <named list [3]> 3446.
##  7    200  -0.04  0.91 <named list [3]> 3613.
##  8    200  -0.04  0.92 <named list [3]> 3797.
##  9    200  -0.04  0.93 <named list [3]> 4000.
## 10    200  -0.04  0.94 <named list [3]> 4226.
## # … with 13,094 more rows
## # ℹ Use `print(n = ...)` to see more rows
…
